<?xml version="1.0" encoding="utf-8"?>
<!-- Generator: Adobe Illustrator 19.0.0, SVG Export Plug-In . SVG Version: 6.00 Build 0)  -->
<svg version="1.1" id="Capa_1" xmlns="http://www.w3.org/2000/svg" xmlns:xlink="http://www.w3.org/1999/xlink" x="0px" y="0px"
	 viewBox="0 0 235 91" style="enable-background:new 0 0 235 91;" xml:space="preserve">
<style type="text/css">
	.st0{opacity:0.25;}
	.st1{clip-path:url(#SVGID_2_);}
	.st2{fill:#FFFFFF;}
</style>
<g class="st0">
	<defs>
		<rect id="SVGID_1_" class="st0" width="235" height="91"/>
	</defs>
	<clipPath id="SVGID_2_">
		<use xlink:href="#SVGID_1_"  style="overflow:visible;"/>
	</clipPath>
	<g class="st1">
		<polygon class="st2" points="94.6,91 119,65 118.2,64.2 93.7,90.2 		"/>
		<polygon class="st2" points="120.7,106.2 80.7,106.2 102.9,97.5 102.5,96.4 77.4,106.2 76.6,106.2 76.6,106.6 76.2,106.7 
			75.8,106.6 75.8,106.6 75.7,105.9 75.8,105.6 76.8,106.2 92.7,77.3 91.6,76.7 75.9,105.3 96.4,45.1 95.3,44.7 75.9,101.5 
			78.2,67.4 76.9,67.4 74.9,98 73.2,47.7 72,47.7 73.6,98 65.5,60.1 64.3,60.4 72.3,97.6 57.6,63.6 56.5,64.1 72.7,101.7 37.4,42.3 
			36.3,42.9 69.2,98.1 55,79.5 54,80.3 67.8,98.3 36.2,66 35.3,66.9 65.4,97.7 38.8,78.4 38.1,79.4 70.5,102.9 70.8,103.2 
			21.4,72.1 20.7,73.1 67.6,102.7 32.6,88.5 32.1,89.6 67.3,103.9 13.8,89.9 13.5,91.1 61.6,103.6 29.8,100.3 29.6,101.5 
			64.7,105.2 19.8,104.9 19.8,106.2 64.4,106.4 29.2,110.5 29.4,111.8 66.4,107.5 15.2,120.8 15.5,122 69.7,107.9 40.6,118.8 
			41,120 67,110.2 33.2,132.4 33.9,133.4 68.8,110.5 66.9,113 18.8,158.2 19.6,159.1 62.8,118.6 42.2,146.3 43.2,147.1 67.8,113.9 
			72.6,109.4 59.6,146.8 60.8,147.2 72.9,112.4 61.4,166.9 62.6,167.2 73.7,114.7 70.8,152.4 72,152.5 74.7,117.9 76.8,172.2 
			78,172.1 75.8,114.2 81,147.4 82.2,147.2 77.1,114.7 91.5,155.7 92.7,155.2 77.3,111.4 94.4,140.3 95.4,139.7 78.7,111.5 
			114.9,141.9 115.7,141 78.6,109.8 101.4,121.3 101.9,120.2 79.1,108.7 115.5,117.3 115.8,116.1 79.5,107.5 120.7,107.5 		"/>
		<g>
			
				<rect x="152.2" y="52.4" transform="matrix(0.1464 0.9892 -0.9892 0.1464 195.9241 -121.1234)" class="st2" width="31.9" height="1.1"/>
		</g>
		<g>
			
				<rect x="138.3" y="62.6" transform="matrix(0.7737 0.6336 -0.6336 0.7737 78.2455 -71.1849)" class="st2" width="1" height="22.6"/>
		</g>
		<g>
			
				<rect x="202.3" y="39.2" transform="matrix(0.3748 0.9271 -0.9271 0.3748 173.593 -156.4534)" class="st2" width="1" height="22.6"/>
		</g>
		<path class="st2" d="M71.3,155.5c-1.1,0-2.1-0.9-2.1-2c0-0.6,0.2-1.1,0.5-1.5c0.4-0.4,0.9-0.7,1.5-0.7l0.1,0c1.1,0,2.1,0.9,2.1,2
			c0,0.6-0.2,1.1-0.5,1.5c-0.4,0.4-0.9,0.7-1.5,0.7H71.3z M81.6,149.4c-1.1,0-2.1-0.9-2.1-2c0-0.6,0.2-1.1,0.5-1.5
			c0.4-0.4,0.9-0.7,1.5-0.7l0.1,0c1.1,0,2.1,0.9,2.1,2c0.1,1.2-0.8,2.2-2,2.2L81.6,149.4z M60.3,148.8c-1.1,0-2.1-0.9-2.1-2
			c-0.1-1.2,0.9-2.2,2-2.2l0.1,0c1.1,0,2.1,0.9,2.1,2c0.1,1.2-0.8,2.2-2,2.2L60.3,148.8z M42.5,148.8c-1.1,0-2.1-0.9-2.1-2
			c0-0.6,0.2-1.1,0.5-1.5c0.4-0.4,0.9-0.7,1.5-0.7l0.1,0c1.1,0,2.1,0.9,2.1,2c0.1,1.2-0.8,2.2-2,2.2L42.5,148.8z M94.9,142.1
			c-1.1,0-2.1-0.9-2.1-2c-0.1-1.2,0.8-2.2,2-2.2h0.1c1.1,0,2.1,0.9,2.1,2c0,0.6-0.2,1.1-0.5,1.5c-0.4,0.4-0.9,0.7-1.5,0.7H94.9z
			 M102.7,123.9c-1.1,0-2.1-0.9-2.1-2c0-0.6,0.2-1.1,0.5-1.5c0.4-0.4,0.9-0.7,1.5-0.7l0.1,0c1.1,0,2.1,0.9,2.1,2
			c0.1,1.2-0.8,2.2-2,2.2L102.7,123.9z M41,121.7c-1.1,0-2.1-0.9-2.1-2c-0.1-1.2,0.8-2.2,2-2.2H41c1.1,0,2.1,0.9,2.1,2
			c0,0.6-0.2,1.1-0.5,1.5c-0.4,0.4-0.9,0.7-1.5,0.7H41z M29.3,113.3c-1.1,0-2.1-0.9-2.1-2c0-0.6,0.2-1.1,0.5-1.5
			c0.4-0.4,0.9-0.7,1.5-0.7l0.1,0c1.1,0,2.1,0.9,2.1,2c0,0.6-0.2,1.1-0.5,1.5c-0.4,0.4-0.9,0.7-1.5,0.7L29.3,113.3z M29.7,102.9
			c-1.1,0-2.1-0.9-2.1-2c0-0.6,0.2-1.1,0.5-1.5c0.4-0.4,0.9-0.7,1.5-0.7l0.1,0c1.1,0,2.1,0.9,2.1,2c0,0.6-0.2,1.1-0.5,1.5
			c-0.4,0.4-0.9,0.7-1.5,0.7L29.7,102.9z M102,99c-1.1,0-2.1-0.9-2.1-2c0-0.6,0.2-1.1,0.5-1.5c0.4-0.4,0.9-0.7,1.5-0.7l0.1,0
			c1.1,0,2.1,0.9,2.1,2c0,0.6-0.2,1.1-0.5,1.5c-0.4,0.4-0.9,0.7-1.5,0.7L102,99z M32.5,91c-1.1,0-2.1-0.9-2.1-2
			c-0.1-1.2,0.8-2.2,2-2.2l0.1,0c1.1,0,2.1,0.9,2.1,2c0.1,1.2-0.8,2.2-2,2.2L32.5,91z M54.4,82c-1.1,0-2.1-0.9-2.1-2
			c-0.1-1.2,0.8-2.2,2-2.2l0.1,0c1.1,0,2.1,0.9,2.1,2c0,0.6-0.2,1.1-0.5,1.5c-0.4,0.4-0.9,0.7-1.5,0.7L54.4,82z M38.4,81
			c-1.1,0-2.1-0.9-2.1-2c0-0.6,0.2-1.1,0.5-1.5c0.4-0.4,0.9-0.7,1.5-0.7l0.1,0c1.1,0,2.1,0.9,2.1,2c0.1,1.2-0.8,2.2-2,2.2L38.4,81z
			 M77.7,69.1c-1.1,0-2.1-0.9-2.1-2c0-0.6,0.2-1.1,0.5-1.5c0.4-0.4,0.9-0.7,1.5-0.7l0.1,0c1.1,0,2.1,0.9,2.1,2
			c0,0.6-0.2,1.1-0.5,1.5c-0.4,0.4-0.9,0.7-1.5,0.7H77.7z M57.1,65.7c-1.1,0-2.1-0.9-2.1-2c-0.1-1.2,0.8-2.2,2-2.2l0.1,0
			c1.1,0,2.1,0.9,2.1,2c0.1,1.2-0.9,2.2-2,2.2L57.1,65.7z"/>
		<path class="st2" d="M35,133.9c0.3-0.4,0.5-0.8,0.4-1.3c0-0.9-0.8-1.7-1.7-1.7c0-0.1-0.1-0.2-0.1-0.2l-4.5-5.3
			c-0.2-0.3-0.6-0.3-0.9-0.1c-0.3,0.2-0.3,0.6-0.1,0.9l4.3,5.1c-0.1,0.1-0.1,0.1-0.2,0.2c0,0.1-0.1,0.1-0.1,0.2
			c-0.1,0-0.1-0.1-0.2-0.1l-6.6-2c-0.3-0.1-0.7,0.1-0.8,0.4c-0.1,0.3,0.1,0.7,0.4,0.8l6.6,2c0,0,0,0,0,0l-6.3,2.2
			c-0.3,0.1-0.5,0.5-0.4,0.8c0.1,0.3,0.3,0.4,0.6,0.4c0.1,0,0.1,0,0.2,0l6.4-2.3l-3.1,6c-0.2,0.3,0,0.7,0.3,0.8
			c0.1,0,0.2,0.1,0.3,0.1c0.2,0,0.4-0.1,0.5-0.3l3.1-6c0.1,0,0.2,0,0.2,0l0.7,6.1c0,0.3,0.3,0.6,0.6,0.6c0,0,0,0,0.1,0
			c0.3,0,0.6-0.3,0.5-0.7l-0.7-6.3C34.9,134,35,134,35,133.9z M44.3,36.2l-5.1,5c-0.1-0.6-0.4-1-0.8-1.4l1.5-6.7
			c0.1-0.3-0.1-0.7-0.5-0.7c-0.3-0.1-0.7,0.1-0.7,0.5l-1.4,6.4c-0.2,0-0.4-0.1-0.5-0.1l-0.1,0c-0.2,0-0.3,0-0.5,0.1l-2.8-6.3
			c-0.1-0.3-0.5-0.5-0.8-0.3c-0.3,0.1-0.5,0.5-0.3,0.8l2.8,6.4c-0.1,0.1-0.1,0.1-0.2,0.2c-0.2,0.2-0.3,0.4-0.4,0.7L28.2,38
			c-0.3-0.1-0.7,0-0.8,0.3c-0.1,0.3,0,0.7,0.3,0.8l6.5,2.8c0,0.2,0.1,0.5,0.2,0.7l-7.1,1.3c-0.3,0.1-0.6,0.4-0.5,0.7
			c0.1,0.3,0.3,0.5,0.6,0.5c0,0,0.1,0,0.1,0l7.7-1.4c0.4,0.3,0.9,0.5,1.5,0.5l0.1,0c0.7,0,1.3-0.3,1.8-0.8c0.1-0.1,0.2-0.3,0.3-0.4
			c0.1,0,0.3-0.1,0.4-0.2l5.8-5.7c0.2-0.2,0.2-0.6,0-0.9C44.9,35.9,44.5,35.9,44.3,36.2z M39.3,56.4c-0.3-0.1-0.7,0.1-0.8,0.4
			L36.2,64c-0.2-0.1-0.4-0.2-0.7-0.2l-2.3-7.5c-0.1-0.3-0.5-0.5-0.8-0.4c-0.3,0.1-0.5,0.4-0.4,0.8l2.3,7.4c-0.1,0.1-0.2,0.1-0.3,0.2
			c0,0,0,0,0,0l-6.5-4.9c-0.3-0.2-0.7-0.1-0.9,0.1c-0.2,0.3-0.1,0.7,0.1,0.9l6.5,4.9c0.1,0.1,0.2,0.1,0.3,0.1c0,0,0,0.1,0,0.1
			l-8.1,0.9c-0.3,0-0.6,0.3-0.5,0.7c0,0.3,0.3,0.5,0.6,0.5h0.1l8.1-0.9c0.1,0,0.1,0,0.2-0.1c0,0,0,0.1,0.1,0.1l-6.3,5.3
			c-0.3,0.2-0.3,0.6-0.1,0.9C27.7,73,27.8,73,28,73c0.1,0,0.3,0,0.4-0.1l6.7-5.6c0,0,0.1,0,0.1,0l0.1,0c0.5,0,0.9-0.2,1.2-0.6
			c0.3-0.4,0.5-0.8,0.5-1.3c0,0,0-0.1,0-0.1l2.7-8.2C39.8,56.8,39.6,56.5,39.3,56.4z M71.2,57.3c-0.1-0.3-0.5-0.4-0.8-0.3l-3.7,1.8
			c-0.1-0.2-0.2-0.4-0.3-0.6l3.5-5.7c0.2-0.3,0.1-0.7-0.2-0.8c-0.3-0.2-0.7-0.1-0.8,0.2l-3.5,5.7c0,0-0.1,0-0.1,0c0,0,0-0.1,0-0.1
			l-0.6-6.9c0-0.3-0.3-0.6-0.7-0.6c-0.3,0-0.6,0.3-0.6,0.7l0.5,6.9c0,0,0,0,0,0.1l-4.9-4.5c-0.2-0.2-0.6-0.2-0.9,0
			c-0.2,0.3-0.2,0.6,0,0.9l5,4.6l-6.6-1c-0.3-0.1-0.7,0.2-0.7,0.5c-0.1,0.3,0.2,0.7,0.5,0.7l6.8,1c0.2,0.7,0.9,1.2,1.7,1.2l0.1,0
			c0.6,0,1.1-0.4,1.4-0.9c0.1,0,0.1,0,0.2,0l4.3-2C71.2,58,71.4,57.6,71.2,57.3z M14.7,82.4L14.7,82.4c-0.3,0-0.6,0.3-0.6,0.6
			l-0.1,5.8c-0.2-0.1-0.4-0.1-0.6-0.1l-0.1,0c-0.1,0-0.2,0-0.3,0.1l-3.1-5.1c-0.2-0.3-0.6-0.4-0.9-0.2c-0.3,0.2-0.4,0.6-0.2,0.9
			l3.2,5.1c-0.1,0.1-0.2,0.2-0.2,0.4l-6-2.4c-0.3-0.1-0.7,0-0.8,0.3c-0.1,0.3,0,0.7,0.3,0.8l6.4,2.6c0,0,0,0,0.1,0l-6.2,2.4
			C5.1,93.6,4.9,94,5,94.3c0.1,0.2,0.3,0.4,0.6,0.4c0.1,0,0.1,0,0.2,0l6.4-2.4l-3.9,5.4c-0.2,0.3-0.1,0.7,0.1,0.9
			c0.1,0.1,0.2,0.1,0.4,0.1c0.2,0,0.4-0.1,0.5-0.3l4-5.6c0.1-0.2,0.1-0.4,0.1-0.6c0.5,0,0.9-0.2,1.2-0.6c0.3-0.4,0.5-0.8,0.5-1.3
			c0-0.1,0-0.1,0-0.1c0-0.1,0.1-0.2,0.1-0.3l0.2-6.9C15.3,82.7,15,82.4,14.7,82.4z M99.4,73.5l-5.7,2.8c0-0.1-0.1-0.2-0.1-0.2
			l3.1-5.9c0.2-0.3,0-0.7-0.3-0.8c-0.3-0.2-0.7,0-0.8,0.3l-3,5.7c-0.1,0-0.1,0-0.2,0c-0.1,0-0.1,0-0.2,0l-1.6-5.9
			c-0.1-0.3-0.4-0.5-0.8-0.4c-0.3,0.1-0.5,0.4-0.4,0.8l1.6,6c-0.1,0.1-0.2,0.2-0.2,0.2l-2.5-2.1c-0.3-0.2-0.6-0.2-0.9,0.1
			c-0.2,0.3-0.2,0.6,0.1,0.9l2.8,2.4c0,0.8,0.7,1.5,1.5,1.7c0.1,0,0.2,0,0.2,0c0.1,0,0.1,0.1,0.2,0.1l6.7,1.4c0,0,0,0,0.1,0
			c0.3,0,0.6-0.2,0.7-0.5c0.1-0.3-0.1-0.7-0.5-0.7l-5.7-1.2c0.1-0.1,0.1-0.2,0.1-0.3c0,0,0,0,0,0l6.2-3.1c0.3-0.2,0.4-0.5,0.3-0.8
			C100.1,73.4,99.7,73.3,99.4,73.5z M221.7,43.7l-6.2,1.3c-0.1-0.3-0.3-0.5-0.6-0.8l3.5-5c0.1-0.1,0.1-0.4-0.1-0.5
			c-0.1-0.1-0.4-0.1-0.5,0.1l-3.6,5c-0.3-0.1-0.6-0.2-0.9-0.2l0.1-6.1c0-0.2-0.1-0.3-0.3-0.3h0c-0.2,0-0.3,0.1-0.3,0.3l-0.2,6.2
			c-0.5,0.1-0.9,0.4-1.2,0.9c-0.7,1-0.4,2.4,0.6,3.1c0.1,0.1,0.2,0.1,0.3,0.2c0.2,0.1,0.5,0.2,0.7,0.2l3.4,5.3
			c0.1,0.1,0.2,0.1,0.3,0.1c0.1,0,0.1,0,0.2,0c0.2-0.1,0.2-0.3,0.1-0.5l-3.2-5c0.5-0.1,1-0.4,1.3-0.8l5.5,2.5c0,0,0.1,0,0.1,0
			c0.1,0,0.2-0.1,0.3-0.2c0.1-0.2,0-0.4-0.2-0.4l-5.5-2.4c0.1-0.3,0.2-0.7,0.1-1l6.2-1.3c0.2,0,0.3-0.2,0.3-0.4
			C222.1,43.8,221.9,43.7,221.7,43.7z M154.1,64l-6,0.5c-0.1-0.3-0.2-0.7-0.4-1l4.8-4.1c0.1-0.1,0.2-0.3,0-0.5
			c-0.1-0.1-0.3-0.2-0.5,0l-4.8,4.1c-0.3-0.2-0.5-0.3-0.9-0.4l0.7-6.1c0-0.2-0.1-0.3-0.3-0.4c-0.2,0-0.3,0.1-0.4,0.3l-0.7,6.1
			c-0.3,0-0.6,0.1-0.9,0.3l-2.8-5.4c-0.1-0.2-0.3-0.2-0.4-0.1c-0.2,0.1-0.2,0.3-0.1,0.4l2.8,5.5c-0.4,0.4-0.6,0.8-0.7,1.4
			c-0.1,1.2,0.8,2.3,2,2.5c0.1,0,0.2,0,0.3,0c0.2,0,0.5-0.1,0.7-0.2l5.6,3c0.1,0,0.1,0,0.2,0c0.1,0,0.2-0.1,0.3-0.2
			c0.1-0.2,0-0.4-0.1-0.4l-5.2-2.9c0.4-0.3,0.7-0.8,0.7-1.4l6-0.5c0.2,0,0.3-0.2,0.3-0.4C154.5,64.1,154.3,64,154.1,64z M128.3,63.5
			l-8,0.2c0-0.1-0.1-0.2-0.1-0.3c0.1,0,0.2-0.1,0.2-0.1l6.5-4.9c0.3-0.2,0.3-0.6,0.1-0.9c-0.2-0.3-0.6-0.3-0.9-0.1l-6.5,4.9
			c-0.1,0.1-0.2,0.2-0.2,0.3c0,0-0.1,0-0.1,0c0,0,0,0,0,0l1.4-8c0.1-0.3-0.2-0.7-0.5-0.7c-0.3-0.1-0.7,0.2-0.7,0.5l-1.4,8
			c0,0,0,0.1,0,0.1c0,0-0.1,0-0.1,0l-3.3-7.4c-0.1-0.3-0.5-0.4-0.8-0.3c-0.3,0.1-0.4,0.5-0.3,0.8L117,63c0,0.1,0.1,0.1,0.2,0.2
			c-0.1,0.2-0.2,0.4-0.3,0.7c-0.1,1,0.5,1.9,1.5,2c0,0,0.1,0,0.1,0c0,0.2,0.1,0.5,0.3,0.6l6.9,4.3c0.1,0.1,0.2,0.1,0.3,0.1
			c0.2,0,0.4-0.1,0.5-0.3c0.2-0.3,0.1-0.7-0.2-0.8l-6.7-4.2c0.2-0.2,0.4-0.4,0.6-0.7l8.1-0.2c0.3,0,0.6-0.3,0.6-0.6
			C128.9,63.7,128.6,63.5,128.3,63.5z M125.2,118.2l-7.8-2.3c-0.1,0-0.2,0-0.3,0c0,0,0-0.1,0-0.1l4.9-2.5c0.3-0.2,0.4-0.5,0.3-0.8
			c-0.1-0.3-0.5-0.4-0.8-0.3l-5,2.5c0,0,0,0,0,0c-0.1-0.1-0.2-0.1-0.3-0.2l2.1-3.3c0.2-0.3,0.1-0.7-0.2-0.8
			c-0.3-0.2-0.7-0.1-0.8,0.2l-2.5,3.9c-0.7,0.3-1.2,1-1.1,1.7c0,0.3,0.1,0.6,0.2,0.8c0,0,0,0.1,0,0.1l0.3,8.6c0,0.3,0.3,0.6,0.6,0.6
			h0c0.3,0,0.6-0.3,0.6-0.7l-0.3-7.8c0.1,0,0.2,0,0.3,0h0.1c0.1,0,0.1,0,0.2,0l4.9,6.4c0.1,0.2,0.3,0.2,0.5,0.2c0.1,0,0.3,0,0.4-0.1
			c0.3-0.2,0.3-0.6,0.1-0.9l-4.8-6.2c0.1-0.1,0.1-0.2,0.2-0.3c0,0,0.1,0.1,0.1,0.1l7.8,2.3c0.1,0,0.1,0,0.2,0c0.3,0,0.5-0.2,0.6-0.4
			C125.7,118.7,125.5,118.3,125.2,118.2z M85.6,172.4l-6.7-1.3c-0.3-0.5-0.8-0.7-1.4-0.7h-0.1c-0.5,0-0.9,0.2-1.2,0.6
			c-0.1,0.1-0.1,0.2-0.2,0.2l-6.2,2.7c-0.3,0.1-0.5,0.5-0.3,0.8c0.1,0.2,0.3,0.3,0.5,0.4c0.1,0,0.2,0,0.4,0l5.5-2.4
			c0,0.1,0.1,0.2,0.1,0.3l-3.6,5.5c-0.2,0.3-0.1,0.7,0.2,0.9c0.1,0,0.1,0.1,0.2,0.1c0.2,0,0.5-0.1,0.6-0.3l3.5-5.3c0,0,0.1,0,0.1,0
			l0.3,6.4c0,0.3,0.2,0.5,0.5,0.6c0,0,0.1,0,0.1,0c0.3,0,0.6-0.3,0.6-0.6l-0.3-6.3c0.1,0,0.1,0,0.2-0.1l4.7,4.6
			c0.1,0.1,0.2,0.1,0.3,0.2c0.2,0,0.4,0,0.6-0.2c0.2-0.2,0.2-0.6,0-0.9l-4.8-4.7c0-0.1,0.1-0.2,0.1-0.3l6.2,1.2l0,0
			c0.3,0.1,0.7-0.2,0.7-0.5C86.1,172.8,85.9,172.5,85.6,172.4z"/>
		<path class="st2" d="M14.5,123.3l-2.6,7.3c-0.1,0.3,0.1,0.7,0.4,0.8c0.1,0,0.1,0,0.2,0c0.3,0,0.5-0.2,0.6-0.4l2.6-7.3
			c0,0,0.1,0,0.1,0l0.1,0c0.1,0,0.1,0,0.2,0l1.9,7.3c0.1,0.3,0.3,0.5,0.6,0.5c0.1,0,0.1,0,0.2,0c0.3-0.1,0.5-0.4,0.4-0.7l-1.9-7.4
			c0.2-0.1,0.3-0.2,0.4-0.4c0.5-0.5,0.7-1.2,0.6-1.8c-0.1-1.4-1.2-2.4-2.5-2.4l-0.1,0c-0.4,0-0.8,0.1-1.1,0.3l-5.3-4.7
			c-0.3-0.2-0.6-0.2-0.9,0.1c-0.2,0.3-0.2,0.6,0.1,0.9l5.2,4.6c-0.1,0.2-0.2,0.4-0.3,0.6L6,119.2c-0.3-0.1-0.6,0.2-0.7,0.5
			c0,0.3,0.2,0.7,0.5,0.7l7.5,1.1c0,0.2,0.1,0.3,0.1,0.5l-6.6,3.5c-0.3,0.2-0.4,0.5-0.3,0.8c0.1,0.2,0.3,0.3,0.5,0.3
			c0.1,0,0.2,0,0.3-0.1l6.7-3.5C14.3,123.1,14.4,123.2,14.5,123.3z M21.6,159.7c0.8-0.5,1.3-1.3,1.3-2.3c-0.1-1.4-1.2-2.4-2.5-2.4
			l-0.1,0c-0.1,0-0.1,0-0.2,0l-5.9-5.2c-0.3-0.2-0.6-0.2-0.9,0.1c-0.2,0.3-0.2,0.6,0.1,0.9l5.4,4.8c-0.1,0.1-0.2,0.2-0.3,0.3
			c-0.2,0.2-0.3,0.4-0.4,0.6l-7.5-1.1c-0.3,0-0.7,0.2-0.7,0.5c0,0.3,0.2,0.7,0.5,0.7l7.4,1.1c0,0.2,0,0.3,0.1,0.5l-7,3.7
			c-0.3,0.2-0.4,0.5-0.3,0.8c0.1,0.2,0.3,0.3,0.5,0.3c0.1,0,0.2,0,0.3-0.1l7-3.7c0.1,0.1,0.2,0.2,0.3,0.3l-2.5,7.2
			c-0.1,0.3,0.1,0.7,0.4,0.8c0.1,0,0.1,0,0.2,0c0.3,0,0.5-0.2,0.6-0.4l2.5-7.1c0.1,0,0.3,0,0.4,0h0.1l1.8,7.1
			c0.1,0.3,0.3,0.5,0.6,0.5c0,0,0.1,0,0.2,0c0.3-0.1,0.5-0.4,0.4-0.8L21.6,159.7z M24,62.2c-0.3-0.1-0.7,0.1-0.7,0.5l-1.6,7.2
			c-0.3-0.1-0.7-0.2-1-0.2l-0.1,0l-2.7-7.2c-0.1-0.3-0.5-0.5-0.8-0.4c-0.3,0.1-0.5,0.5-0.4,0.8l2.7,7.1c-0.1,0.1-0.3,0.2-0.4,0.3
			l-6.7-4.4c-0.3-0.2-0.7-0.1-0.9,0.2c-0.2,0.3-0.1,0.7,0.2,0.9l6.6,4.3c-0.1,0.1-0.1,0.3-0.1,0.4l-7.4,1.3
			c-0.3,0.1-0.6,0.4-0.5,0.7c0,0.3,0.3,0.5,0.6,0.5c0,0,0.1,0,0.1,0l7.3-1.2c0.1,0.2,0.1,0.4,0.2,0.5l-5.2,5c-0.2,0.2-0.3,0.6,0,0.9
			c0.1,0.1,0.3,0.2,0.4,0.2c0.2,0,0.3-0.1,0.4-0.2l5.2-5c0.4,0.2,0.8,0.4,1.3,0.4l0.1,0c0.7,0,1.3-0.3,1.8-0.8
			c0.5-0.5,0.7-1.2,0.7-1.8c0-0.5-0.2-0.9-0.5-1.3l1.7-7.8C24.5,62.6,24.3,62.2,24,62.2z M131,102.4l-7.7,2.6c0,0-0.1,0-0.1,0.1
			c0-0.1-0.1-0.1-0.1-0.1l3.7-7c0.2-0.3,0-0.7-0.3-0.8c-0.3-0.2-0.7,0-0.8,0.3l-3.6,6.8c-0.1-0.1-0.3-0.1-0.4-0.2l-0.7-7.4
			c0-0.3-0.3-0.6-0.7-0.6c-0.3,0-0.6,0.3-0.6,0.7l0.7,7.1c-1.6,0.2-2.8,1.6-2.7,3.2c0.1,1.6,1.4,2.9,3.1,2.9c0,0,0.1,0,0.2,0
			c0.4,0,0.7-0.1,1-0.3l4.4,5.3c0.1,0.2,0.3,0.2,0.5,0.2c0.1,0,0.3,0,0.4-0.1c0.3-0.2,0.3-0.6,0.1-0.9l-4.3-5.2
			c0.3-0.3,0.5-0.7,0.7-1.1l7.1,2.2c0.1,0,0.1,0,0.2,0c0.3,0,0.5-0.2,0.6-0.4c0.1-0.3-0.1-0.7-0.4-0.8l-7.3-2.2c0-0.1,0-0.3-0.1-0.4
			l7.7-2.6c0.3-0.1,0.5-0.5,0.4-0.8C131.7,102.4,131.3,102.3,131,102.4z M173.8,34.8l-5.9,2.1c0-0.6-0.2-1.1-0.6-1.5l3.8-5.1
			c0.1-0.2,0.1-0.4-0.1-0.5c-0.2-0.1-0.4-0.1-0.5,0.1l-3.8,5c-0.3-0.2-0.7-0.3-1-0.4l0.1-6.7c0-0.2-0.1-0.3-0.3-0.3
			c-0.2,0-0.3,0.1-0.3,0.3l-0.1,6.7c-0.3,0.1-0.6,0.2-0.9,0.4l-4.3-4.8c-0.1-0.1-0.3-0.2-0.5,0c-0.1,0.1-0.2,0.3,0,0.5l4.3,4.8
			c-0.2,0.3-0.3,0.6-0.4,0.9l-6.2-1.6c-0.2,0-0.4,0.1-0.4,0.2c0,0.2,0.1,0.4,0.2,0.4l6.3,1.6c0,0.5,0.2,1.1,0.6,1.5
			c0.9,1,2.4,1,3.3,0.1c0.1-0.1,0.2-0.2,0.2-0.3c0.2-0.2,0.3-0.4,0.4-0.7l6.3-2.3c0.2-0.1,0.3-0.3,0.2-0.4
			C174.2,34.8,174,34.8,173.8,34.8z M71.5,167.9l-6.5-2c0-0.1,0-0.3,0-0.4c-0.1-1.4-1.2-2.4-2.5-2.4h-0.1c-0.7,0-1.3,0.3-1.8,0.8
			c-0.2,0.2-0.3,0.4-0.4,0.6c-0.1,0-0.2,0-0.3,0l-7.8,2.3c-0.3,0.1-0.5,0.4-0.4,0.8c0.1,0.3,0.3,0.4,0.6,0.4c0.1,0,0.1,0,0.2,0
			l7.5-2.2c0,0.3,0.1,0.6,0.2,0.9l-5.2,6.2c-0.2,0.3-0.2,0.7,0.1,0.9c0.1,0.1,0.3,0.1,0.4,0.1c0.2,0,0.3-0.1,0.5-0.2l5.1-6
			c0.1,0.1,0.2,0.1,0.3,0.2c0,0,0,0,0,0l-0.6,8.1c0,0.3,0.2,0.6,0.6,0.7c0,0,0,0,0,0c0.3,0,0.6-0.2,0.6-0.6l0.6-7.9c0,0,0,0,0.1,0
			l0.1,0c0.1,0,0.2,0,0.3,0l4.7,5.8c0.1,0.1,0.3,0.2,0.5,0.2c0.1,0,0.3,0,0.4-0.1c0.3-0.2,0.3-0.6,0.1-0.9l-4.4-5.5
			c0.1-0.1,0.2-0.2,0.3-0.3c0.1-0.1,0.1-0.2,0.2-0.3l6.5,2.1c0.1,0,0.1,0,0.2,0c0.3,0,0.5-0.2,0.6-0.4C72,168.4,71.8,168,71.5,167.9
			z M9.2,106l7.7,0c0.1,0.2,0.1,0.4,0.2,0.5l-5.4,5c-0.3,0.2-0.3,0.6,0,0.9c0.1,0.1,0.3,0.2,0.5,0.2c0.2,0,0.3-0.1,0.4-0.2l5.4-5
			c0.2,0.1,0.3,0.2,0.5,0.2l-1.7,7.1c-0.1,0.3,0.1,0.7,0.5,0.7c0.1,0,0.1,0,0.1,0c0.3,0,0.5-0.2,0.6-0.5l1.8-7.3
			c0.6-0.1,1.1-0.4,1.5-0.8c0.5-0.5,0.7-1.2,0.6-1.8c0-0.9-0.6-1.7-1.3-2.1l-2.8-7.4c-0.1-0.3-0.5-0.5-0.8-0.4
			c-0.3,0.1-0.5,0.5-0.4,0.8l2.5,6.7c-0.4,0-0.9,0.2-1.2,0.4L12,98.9c-0.3-0.2-0.7-0.1-0.9,0.1c-0.2,0.3-0.1,0.7,0.1,0.9l5.8,4.3
			c-0.1,0.2-0.2,0.4-0.2,0.7l-7.6,0h0c-0.3,0-0.6,0.3-0.6,0.6C8.6,105.7,8.9,106,9.2,106z M124.9,139.2l-7.7,1.5
			c0-0.1-0.1-0.2-0.1-0.3l5.5-5.4c0.2-0.2,0.2-0.6,0-0.9c-0.2-0.2-0.6-0.2-0.9,0l-5.4,5.3c-0.4-0.3-0.9-0.5-1.5-0.5l-0.1,0
			c-0.7,0-1.3,0.3-1.8,0.8c-0.5,0.5-0.7,1.2-0.7,1.8c0,0.7,0.4,1.3,0.9,1.8l-1.5,7.3c-0.1,0.3,0.1,0.7,0.5,0.7c0,0,0.1,0,0.1,0
			c0.3,0,0.5-0.2,0.6-0.5l1.4-7c0.2,0,0.4,0.1,0.5,0.1l0.1,0c0.2,0,0.3,0,0.5-0.1l2.8,7.1c0.1,0.2,0.3,0.4,0.6,0.4
			c0.1,0,0.1,0,0.2,0c0.3-0.1,0.5-0.5,0.3-0.8l-2.9-7.2c0.1-0.1,0.1-0.1,0.2-0.2c0,0,0-0.1,0.1-0.1c0,0,0,0,0.1,0.1l6.9,4.3
			c0.1,0.1,0.2,0.1,0.3,0.1c0.2,0,0.4-0.1,0.5-0.3c0.2-0.3,0.1-0.7-0.2-0.8l-6.9-4.3c-0.1,0-0.1-0.1-0.2-0.1c0,0,0-0.1,0-0.1
			l7.9-1.5c0.3-0.1,0.6-0.4,0.5-0.7C125.6,139.4,125.2,139.1,124.9,139.2z M79.5,40l-4.9,4.8c-0.3-0.4-0.6-0.6-1-0.8l1.5-7.1
			c0.1-0.3-0.1-0.7-0.5-0.7c-0.3-0.1-0.7,0.1-0.7,0.5l-1.6,7.2c-0.2,0-0.4,0.1-0.6,0.1l-3.2-7.2c-0.1-0.3-0.5-0.5-0.8-0.3
			c-0.3,0.1-0.5,0.5-0.3,0.8l3.2,7.3c0,0,0,0,0,0c-0.1,0.1-0.1,0.1-0.2,0.2l-7.1-3c-0.3-0.1-0.7,0-0.8,0.3c-0.1,0.3,0,0.7,0.3,0.8
			L70,46c0,0.1,0,0.3,0,0.4l-7.5,1.4c-0.3,0.1-0.6,0.4-0.5,0.7c0.1,0.3,0.3,0.5,0.6,0.5c0,0,0.1,0,0.1,0l7.6-1.4
			c0.4,0.8,1.3,1.3,2.2,1.3l0.1,0c1.4-0.1,2.5-1.3,2.4-2.7c0,0,0-0.1,0-0.1l5.3-5.2c0.2-0.2,0.2-0.6,0-0.9
			C80.1,39.8,79.8,39.8,79.5,40z M104.4,42.4L97.9,45c-0.1-0.4-0.3-0.8-0.6-1.1l4.2-6.2c0.2-0.3,0.1-0.7-0.2-0.9
			c-0.3-0.2-0.7-0.1-0.9,0.2l-4.3,6.2c-0.1,0-0.3-0.1-0.5-0.1l-0.2-8c0-0.3-0.3-0.6-0.6-0.6c-0.3,0-0.6,0.3-0.6,0.6l0.2,8.1
			c-0.1,0-0.2,0.1-0.2,0.1l-5.4-5.6c-0.2-0.2-0.6-0.2-0.9,0c-0.2,0.2-0.2,0.6,0,0.9l5.4,5.5c-0.1,0.1-0.1,0.2-0.2,0.3l-7.4-1.5
			c-0.3-0.1-0.7,0.1-0.7,0.5c-0.1,0.3,0.1,0.7,0.5,0.7l7.4,1.5c0,0,0,0,0,0c0.1,1.4,1.2,2.4,2.5,2.4l0.1,0c0.7,0,1.3-0.3,1.8-0.8
			c0.3-0.3,0.5-0.7,0.6-1.1l7-2.9c0.3-0.1,0.5-0.5,0.3-0.8C105.1,42.4,104.8,42.2,104.4,42.4z M101.7,152.5l-8.1,1c0,0-0.1,0-0.1,0
			c-0.3-0.4-0.8-0.7-1.4-0.7H92c-0.7,0-1.3,0.5-1.6,1.1l-6.8,5.6c-0.3,0.2-0.3,0.6-0.1,0.9c0.1,0.1,0.3,0.2,0.5,0.2
			c0.1,0,0.3-0.1,0.4-0.2l6.1-5c0.1,0.1,0.1,0.2,0.2,0.3l-2.1,7.6c-0.1,0.3,0.1,0.7,0.4,0.8c0.1,0,0.1,0,0.2,0
			c0.3,0,0.5-0.2,0.6-0.4l2.1-7.4c0.1,0,0.1,0,0.2,0l2.7,7.2c0.1,0.2,0.3,0.4,0.6,0.4c0.1,0,0.1,0,0.2,0c0.3-0.1,0.5-0.5,0.4-0.8
			l-2.7-7.2c0,0,0,0,0,0c0,0,0,0,0.1,0.1l7.2,3.7c0.1,0,0.2,0.1,0.3,0.1c0.2,0,0.4-0.1,0.6-0.3c0.2-0.3,0-0.7-0.3-0.8l-7.3-3.7
			c0,0,0,0,0,0c0,0,0-0.1,0-0.1l8-1c0.3,0,0.6-0.3,0.5-0.7C102.4,152.7,102,152.5,101.7,152.5z"/>
	</g>
</g>
</svg>
